%YAML 1.1
%TAG !u! tag:unity3d.com,2011:
--- !u!65 &5646427652294541105
BoxCollider:
  m_ObjectHideFlags: 0
  m_CorrespondingSourceObject: {fileID: 0}
  m_PrefabInstance: {fileID: 0}
  m_PrefabAsset: {fileID: 0}
  m_GameObject: {fileID: 310158046102901464}
  m_Material: {fileID: 0}
  m_IsTrigger: 1
  m_Enabled: 1
  serializedVersion: 2
  m_Size: {x: 0.017237842, y: 0.026733205, z: 0.03186999}
  m_Center: {x: 0, y: 0.011690741, z: 0.0026228447}
--- !u!82 &8983418412305384397
AudioSource:
  m_ObjectHideFlags: 0
  m_CorrespondingSourceObject: {fileID: 0}
  m_PrefabInstance: {fileID: 0}
  m_PrefabAsset: {fileID: 0}
  m_GameObject: {fileID: 310158046102901464}
  m_Enabled: 1
  serializedVersion: 4
  OutputAudioMixerGroup: {fileID: 0}
  m_audioClip: {fileID: 8300000, guid: 8488734624fea6e4096f50b4385bcacc, type: 3}
  m_PlayOnAwake: 1
  m_Volume: 1
  m_Pitch: 1
  Loop: 0
  Mute: 0
  Spatialize: 0
  SpatializePostEffects: 0
  Priority: 128
  DopplerLevel: 1
  MinDistance: 1
  MaxDistance: 500
  Pan2D: 0
  rolloffMode: 0
  BypassEffects: 0
  BypassListenerEffects: 0
  BypassReverbZones: 0
  rolloffCustomCurve:
    serializedVersion: 2
    m_Curve:
    - serializedVersion: 3
      time: 0
      value: 1
      inSlope: 0
      outSlope: 0
      tangentMode: 0
      weightedMode: 0
      inWeight: 0.33333334
      outWeight: 0.33333334
    - serializedVersion: 3
      time: 1
      value: 0
      inSlope: 0
      outSlope: 0
      tangentMode: 0
      weightedMode: 0
      inWeight: 0.33333334
      outWeight: 0.33333334
    m_PreInfinity: 2
    m_PostInfinity: 2
    m_RotationOrder: 4
  panLevelCustomCurve:
    serializedVersion: 2
    m_Curve:
    - serializedVersion: 3
      time: 0
      value: 0
      inSlope: 0
      outSlope: 0
      tangentMode: 0
      weightedMode: 0
      inWeight: 0.33333334
      outWeight: 0.33333334
    m_PreInfinity: 2
    m_PostInfinity: 2
    m_RotationOrder: 4
  spreadCustomCurve:
    serializedVersion: 2
    m_Curve:
    - serializedVersion: 3
      time: 0
      value: 0
      inSlope: 0
      outSlope: 0
      tangentMode: 0
      weightedMode: 0
      inWeight: 0.33333334
      outWeight: 0.33333334
    m_PreInfinity: 2
    m_PostInfinity: 2
    m_RotationOrder: 4
  reverbZoneMixCustomCurve:
    serializedVersion: 2
    m_Curve:
    - serializedVersion: 3
      time: 0
      value: 1
      inSlope: 0
      outSlope: 0
      tangentMode: 0
      weightedMode: 0
      inWeight: 0.33333334
      outWeight: 0.33333334
    m_PreInfinity: 2
    m_PostInfinity: 2
    m_RotationOrder: 4
--- !u!95 &6398012547458288072
Animator:
  serializedVersion: 3
  m_ObjectHideFlags: 0
  m_CorrespondingSourceObject: {fileID: 0}
  m_PrefabInstance: {fileID: 0}
  m_PrefabAsset: {fileID: 0}
  m_GameObject: {fileID: 310158046102901464}
  m_Enabled: 1
  m_Avatar: {fileID: 0}
  m_Controller: {fileID: 9100000, guid: 7bc5aa94436b54d4086450059dcfc449, type: 2}
  m_CullingMode: 0
  m_UpdateMode: 0
  m_ApplyRootMotion: 0
  m_LinearVelocityBlending: 0
  m_WarningMessage: 
  m_HasTransformHierarchy: 1
  m_AllowConstantClipSamplingOptimization: 1
  m_KeepAnimatorControllerStateOnDisable: 0
--- !u!114 &7236935441237110709
MonoBehaviour:
  m_ObjectHideFlags: 0
  m_CorrespondingSourceObject: {fileID: 0}
  m_PrefabInstance: {fileID: 0}
  m_PrefabAsset: {fileID: 0}
  m_GameObject: {fileID: 310158046102901464}
  m_Enabled: 1
  m_EditorHideFlags: 0
  m_Script: {fileID: 11500000, guid: c0a270e5c3c5aa941957e6d79899dc9d, type: 3}
  m_Name: 
  m_EditorClassIdentifier: 
  particle: {fileID: 100004, guid: 7867af58a6ec48846ae807eb4022fbaa, type: 3}
--- !u!1001 &310158046102869112
PrefabInstance:
  m_ObjectHideFlags: 0
  serializedVersion: 2
  m_Modification:
    m_TransformParent: {fileID: 0}
    m_Modifications:
    - target: {fileID: 100000, guid: d96dd1ddc75526c47971d7088fe39d8c, type: 3}
      propertyPath: m_Name
      value: BunnyCoin Variant
      objectReference: {fileID: 0}
    - target: {fileID: 100000, guid: d96dd1ddc75526c47971d7088fe39d8c, type: 3}
      propertyPath: m_TagString
      value: CoinBunny
      objectReference: {fileID: 0}
    - target: {fileID: 400000, guid: d96dd1ddc75526c47971d7088fe39d8c, type: 3}
      propertyPath: m_LocalPosition.x
      value: -2.6493073
      objectReference: {fileID: 0}
    - target: {fileID: 400000, guid: d96dd1ddc75526c47971d7088fe39d8c, type: 3}
      propertyPath: m_LocalPosition.y
      value: 0.16758597
      objectReference: {fileID: 0}
    - target: {fileID: 400000, guid: d96dd1ddc75526c47971d7088fe39d8c, type: 3}
      propertyPath: m_LocalPosition.z
      value: -20.036224
      objectReference: {fileID: 0}
    - target: {fileID: 400000, guid: d96dd1ddc75526c47971d7088fe39d8c, type: 3}
      propertyPath: m_LocalRotation.x
      value: 0.000000081460335
      objectReference: {fileID: 0}
    - target: {fileID: 400000, guid: d96dd1ddc75526c47971d7088fe39d8c, type: 3}
      propertyPath: m_LocalRotation.y
      value: 0
      objectReference: {fileID: 0}
    - target: {fileID: 400000, guid: d96dd1ddc75526c47971d7088fe39d8c, type: 3}
      propertyPath: m_LocalRotation.z
      value: -0
      objectReference: {fileID: 0}
    - target: {fileID: 400000, guid: d96dd1ddc75526c47971d7088fe39d8c, type: 3}
      propertyPath: m_LocalRotation.w
      value: 1
      objectReference: {fileID: 0}
    - target: {fileID: 400000, guid: d96dd1ddc75526c47971d7088fe39d8c, type: 3}
      propertyPath: m_RootOrder
      value: 0
      objectReference: {fileID: 0}
    - target: {fileID: 400000, guid: d96dd1ddc75526c47971d7088fe39d8c, type: 3}
      propertyPath: m_LocalEulerAnglesHint.x
      value: 0
      objectReference: {fileID: 0}
    - target: {fileID: 400000, guid: d96dd1ddc75526c47971d7088fe39d8c, type: 3}
      propertyPath: m_LocalEulerAnglesHint.y
      value: 0
      objectReference: {fileID: 0}
    - target: {fileID: 400000, guid: d96dd1ddc75526c47971d7088fe39d8c, type: 3}
      propertyPath: m_LocalEulerAnglesHint.z
      value: 0
      objectReference: {fileID: 0}
    - target: {fileID: 400000, guid: d96dd1ddc75526c47971d7088fe39d8c, type: 3}
      propertyPath: m_LocalScale.x
      value: 50
      objectReference: {fileID: 0}
    - target: {fileID: 400000, guid: d96dd1ddc75526c47971d7088fe39d8c, type: 3}
      propertyPath: m_LocalScale.y
      value: 50
      objectReference: {fileID: 0}
    - target: {fileID: 400000, guid: d96dd1ddc75526c47971d7088fe39d8c, type: 3}
      propertyPath: m_LocalScale.z
      value: 50
      objectReference: {fileID: 0}
    - target: {fileID: 2300000, guid: d96dd1ddc75526c47971d7088fe39d8c, type: 3}
      propertyPath: m_Materials.Array.data[0]
      value: 
      objectReference: {fileID: 2100000, guid: 5988a00d4adfe3f47aeda6d5fdc1bfb4, type: 2}
    m_RemovedComponents: []
  m_SourcePrefab: {fileID: 100100000, guid: d96dd1ddc75526c47971d7088fe39d8c, type: 3}
--- !u!1 &310158046102901464 stripped
GameObject:
  m_CorrespondingSourceObject: {fileID: 100000, guid: d96dd1ddc75526c47971d7088fe39d8c,
    type: 3}
  m_PrefabInstance: {fileID: 310158046102869112}
  m_PrefabAsset: {fileID: 0}
