%YAML 1.1
%TAG !u! tag:unity3d.com,2011:
--- !u!1001 &6450045047618937187
PrefabInstance:
  m_ObjectHideFlags: 0
  serializedVersion: 2
  m_Modification:
    m_TransformParent: {fileID: 0}
    m_Modifications:
    - target: {fileID: 3073332228980444061, guid: 1f961c970e52987448f33dbfe708ada6,
        type: 3}
      propertyPath: m_SizeDelta.x
      value: -24.3
      objectReference: {fileID: 0}
    - target: {fileID: 3073332228980444061, guid: 1f961c970e52987448f33dbfe708ada6,
        type: 3}
      propertyPath: m_SizeDelta.y
      value: -175.5
      objectReference: {fileID: 0}
    - target: {fileID: 3073332230220454288, guid: 1f961c970e52987448f33dbfe708ada6,
        type: 3}
      propertyPath: m_Name
      value: UnlockInvisibleText
      objectReference: {fileID: 0}
    - target: {fileID: 3073332230220454290, guid: 1f961c970e52987448f33dbfe708ada6,
        type: 3}
      propertyPath: m_Text
      value: "\xA1Invisibilidad desbloqueada!"
      objectReference: {fileID: 0}
    - target: {fileID: 3073332230592442372, guid: 1f961c970e52987448f33dbfe708ada6,
        type: 3}
      propertyPath: m_Name
      value: CanvasUnlockInvisibility Variant
      objectReference: {fileID: 0}
    - target: {fileID: 3073332230592442372, guid: 1f961c970e52987448f33dbfe708ada6,
        type: 3}
      propertyPath: m_IsActive
      value: 1
      objectReference: {fileID: 0}
    - target: {fileID: 3073332230592442372, guid: 1f961c970e52987448f33dbfe708ada6,
        type: 3}
      propertyPath: m_TagString
      value: CanvasUnlockInvis
      objectReference: {fileID: 0}
    - target: {fileID: 3073332230592442376, guid: 1f961c970e52987448f33dbfe708ada6,
        type: 3}
      propertyPath: m_LocalPosition.x
      value: 0
      objectReference: {fileID: 0}
    - target: {fileID: 3073332230592442376, guid: 1f961c970e52987448f33dbfe708ada6,
        type: 3}
      propertyPath: m_LocalPosition.y
      value: 0
      objectReference: {fileID: 0}
    - target: {fileID: 3073332230592442376, guid: 1f961c970e52987448f33dbfe708ada6,
        type: 3}
      propertyPath: m_LocalPosition.z
      value: 0
      objectReference: {fileID: 0}
    - target: {fileID: 3073332230592442376, guid: 1f961c970e52987448f33dbfe708ada6,
        type: 3}
      propertyPath: m_LocalRotation.x
      value: 0
      objectReference: {fileID: 0}
    - target: {fileID: 3073332230592442376, guid: 1f961c970e52987448f33dbfe708ada6,
        type: 3}
      propertyPath: m_LocalRotation.y
      value: 0
      objectReference: {fileID: 0}
    - target: {fileID: 3073332230592442376, guid: 1f961c970e52987448f33dbfe708ada6,
        type: 3}
      propertyPath: m_LocalRotation.z
      value: 0
      objectReference: {fileID: 0}
    - target: {fileID: 3073332230592442376, guid: 1f961c970e52987448f33dbfe708ada6,
        type: 3}
      propertyPath: m_LocalRotation.w
      value: 1
      objectReference: {fileID: 0}
    - target: {fileID: 3073332230592442376, guid: 1f961c970e52987448f33dbfe708ada6,
        type: 3}
      propertyPath: m_RootOrder
      value: 0
      objectReference: {fileID: 0}
    - target: {fileID: 3073332230592442376, guid: 1f961c970e52987448f33dbfe708ada6,
        type: 3}
      propertyPath: m_LocalEulerAnglesHint.x
      value: 0
      objectReference: {fileID: 0}
    - target: {fileID: 3073332230592442376, guid: 1f961c970e52987448f33dbfe708ada6,
        type: 3}
      propertyPath: m_LocalEulerAnglesHint.y
      value: 0
      objectReference: {fileID: 0}
    - target: {fileID: 3073332230592442376, guid: 1f961c970e52987448f33dbfe708ada6,
        type: 3}
      propertyPath: m_LocalEulerAnglesHint.z
      value: 0
      objectReference: {fileID: 0}
    - target: {fileID: 3073332230592442376, guid: 1f961c970e52987448f33dbfe708ada6,
        type: 3}
      propertyPath: m_AnchoredPosition.x
      value: 0
      objectReference: {fileID: 0}
    - target: {fileID: 3073332230592442376, guid: 1f961c970e52987448f33dbfe708ada6,
        type: 3}
      propertyPath: m_AnchoredPosition.y
      value: 0
      objectReference: {fileID: 0}
    - target: {fileID: 3073332230592442376, guid: 1f961c970e52987448f33dbfe708ada6,
        type: 3}
      propertyPath: m_SizeDelta.x
      value: 0
      objectReference: {fileID: 0}
    - target: {fileID: 3073332230592442376, guid: 1f961c970e52987448f33dbfe708ada6,
        type: 3}
      propertyPath: m_SizeDelta.y
      value: 0
      objectReference: {fileID: 0}
    - target: {fileID: 3073332230592442376, guid: 1f961c970e52987448f33dbfe708ada6,
        type: 3}
      propertyPath: m_AnchorMin.x
      value: 0
      objectReference: {fileID: 0}
    - target: {fileID: 3073332230592442376, guid: 1f961c970e52987448f33dbfe708ada6,
        type: 3}
      propertyPath: m_AnchorMin.y
      value: 0
      objectReference: {fileID: 0}
    - target: {fileID: 3073332230592442376, guid: 1f961c970e52987448f33dbfe708ada6,
        type: 3}
      propertyPath: m_AnchorMax.x
      value: 0
      objectReference: {fileID: 0}
    - target: {fileID: 3073332230592442376, guid: 1f961c970e52987448f33dbfe708ada6,
        type: 3}
      propertyPath: m_AnchorMax.y
      value: 0
      objectReference: {fileID: 0}
    - target: {fileID: 3073332230592442376, guid: 1f961c970e52987448f33dbfe708ada6,
        type: 3}
      propertyPath: m_Pivot.x
      value: 0
      objectReference: {fileID: 0}
    - target: {fileID: 3073332230592442376, guid: 1f961c970e52987448f33dbfe708ada6,
        type: 3}
      propertyPath: m_Pivot.y
      value: 0
      objectReference: {fileID: 0}
    m_RemovedComponents: []
  m_SourcePrefab: {fileID: 100100000, guid: 1f961c970e52987448f33dbfe708ada6, type: 3}
