%YAML 1.1
%TAG !u! tag:unity3d.com,2011:
--- !u!65 &211651694
BoxCollider:
  m_ObjectHideFlags: 0
  m_CorrespondingSourceObject: {fileID: 0}
  m_PrefabInstance: {fileID: 0}
  m_PrefabAsset: {fileID: 0}
  m_GameObject: {fileID: 5554826631747788490}
  m_Material: {fileID: 0}
  m_IsTrigger: 0
  m_Enabled: 1
  serializedVersion: 2
  m_Size: {x: 20.627716, y: 10.187084, z: 2.2019615}
  m_Center: {x: 0.10501099, y: 4.996149, z: -0.0020017624}
--- !u!95 &573596799
Animator:
  serializedVersion: 3
  m_ObjectHideFlags: 0
  m_CorrespondingSourceObject: {fileID: 0}
  m_PrefabInstance: {fileID: 0}
  m_PrefabAsset: {fileID: 0}
  m_GameObject: {fileID: 5554826631747788490}
  m_Enabled: 1
  m_Avatar: {fileID: 0}
  m_Controller: {fileID: 9100000, guid: b87577a5aa2891c45b62a2a3d4a8ebf0, type: 2}
  m_CullingMode: 0
  m_UpdateMode: 0
  m_ApplyRootMotion: 0
  m_LinearVelocityBlending: 0
  m_WarningMessage: 
  m_HasTransformHierarchy: 1
  m_AllowConstantClipSamplingOptimization: 1
  m_KeepAnimatorControllerStateOnDisable: 0
--- !u!1001 &5554826631747819624
PrefabInstance:
  m_ObjectHideFlags: 0
  serializedVersion: 2
  m_Modification:
    m_TransformParent: {fileID: 0}
    m_Modifications:
    - target: {fileID: 100002, guid: 1d13f49c47ebd11478a1006c1da5968a, type: 3}
      propertyPath: m_Name
      value: Wall Variant
      objectReference: {fileID: 0}
    - target: {fileID: 100002, guid: 1d13f49c47ebd11478a1006c1da5968a, type: 3}
      propertyPath: m_IsActive
      value: 0
      objectReference: {fileID: 0}
    - target: {fileID: 100002, guid: 1d13f49c47ebd11478a1006c1da5968a, type: 3}
      propertyPath: m_TagString
      value: Ground
      objectReference: {fileID: 0}
    - target: {fileID: 400002, guid: 1d13f49c47ebd11478a1006c1da5968a, type: 3}
      propertyPath: m_LocalPosition.x
      value: 249.91542
      objectReference: {fileID: 0}
    - target: {fileID: 400002, guid: 1d13f49c47ebd11478a1006c1da5968a, type: 3}
      propertyPath: m_LocalPosition.y
      value: -0.2700001
      objectReference: {fileID: 0}
    - target: {fileID: 400002, guid: 1d13f49c47ebd11478a1006c1da5968a, type: 3}
      propertyPath: m_LocalPosition.z
      value: 267.16946
      objectReference: {fileID: 0}
    - target: {fileID: 400002, guid: 1d13f49c47ebd11478a1006c1da5968a, type: 3}
      propertyPath: m_LocalRotation.x
      value: 0
      objectReference: {fileID: 0}
    - target: {fileID: 400002, guid: 1d13f49c47ebd11478a1006c1da5968a, type: 3}
      propertyPath: m_LocalRotation.y
      value: -0.9929656
      objectReference: {fileID: 0}
    - target: {fileID: 400002, guid: 1d13f49c47ebd11478a1006c1da5968a, type: 3}
      propertyPath: m_LocalRotation.z
      value: -0
      objectReference: {fileID: 0}
    - target: {fileID: 400002, guid: 1d13f49c47ebd11478a1006c1da5968a, type: 3}
      propertyPath: m_LocalRotation.w
      value: 0.11840416
      objectReference: {fileID: 0}
    - target: {fileID: 400002, guid: 1d13f49c47ebd11478a1006c1da5968a, type: 3}
      propertyPath: m_RootOrder
      value: 0
      objectReference: {fileID: 0}
    - target: {fileID: 400002, guid: 1d13f49c47ebd11478a1006c1da5968a, type: 3}
      propertyPath: m_LocalEulerAnglesHint.x
      value: 0
      objectReference: {fileID: 0}
    - target: {fileID: 400002, guid: 1d13f49c47ebd11478a1006c1da5968a, type: 3}
      propertyPath: m_LocalEulerAnglesHint.y
      value: 0
      objectReference: {fileID: 0}
    - target: {fileID: 400002, guid: 1d13f49c47ebd11478a1006c1da5968a, type: 3}
      propertyPath: m_LocalEulerAnglesHint.z
      value: 0
      objectReference: {fileID: 0}
    - target: {fileID: 400002, guid: 1d13f49c47ebd11478a1006c1da5968a, type: 3}
      propertyPath: m_LocalScale.x
      value: 0.5
      objectReference: {fileID: 0}
    - target: {fileID: 400002, guid: 1d13f49c47ebd11478a1006c1da5968a, type: 3}
      propertyPath: m_LocalScale.y
      value: 0.5
      objectReference: {fileID: 0}
    - target: {fileID: 400002, guid: 1d13f49c47ebd11478a1006c1da5968a, type: 3}
      propertyPath: m_LocalScale.z
      value: 0.5
      objectReference: {fileID: 0}
    - target: {fileID: 2300000, guid: 1d13f49c47ebd11478a1006c1da5968a, type: 3}
      propertyPath: m_Materials.Array.data[0]
      value: 
      objectReference: {fileID: 2100000, guid: 016c26da6a2a56f41bd90cd6c9644a4e, type: 2}
    m_RemovedComponents: []
  m_SourcePrefab: {fileID: 100100000, guid: 1d13f49c47ebd11478a1006c1da5968a, type: 3}
--- !u!1 &5554826631747788490 stripped
GameObject:
  m_CorrespondingSourceObject: {fileID: 100002, guid: 1d13f49c47ebd11478a1006c1da5968a,
    type: 3}
  m_PrefabInstance: {fileID: 5554826631747819624}
  m_PrefabAsset: {fileID: 0}
