%YAML 1.1
%TAG !u! tag:unity3d.com,2011:
--- !u!114 &1849805914
MonoBehaviour:
  m_ObjectHideFlags: 0
  m_CorrespondingSourceObject: {fileID: 0}
  m_PrefabInstance: {fileID: 0}
  m_PrefabAsset: {fileID: 0}
  m_GameObject: {fileID: 7186780250506414072}
  m_Enabled: 1
  m_EditorHideFlags: 0
  m_Script: {fileID: 11500000, guid: b48fb677edde60f4cac2abf11f4ed99c, type: 3}
  m_Name: 
  m_EditorClassIdentifier: 
--- !u!1001 &7186780250506510680
PrefabInstance:
  m_ObjectHideFlags: 0
  serializedVersion: 2
  m_Modification:
    m_TransformParent: {fileID: 0}
    m_Modifications:
    - target: {fileID: 100000, guid: 93e86b57e56570d46814839867bf9a52, type: 3}
      propertyPath: m_Name
      value: WallPrototype08x08x01
      objectReference: {fileID: 0}
    - target: {fileID: 100000, guid: 93e86b57e56570d46814839867bf9a52, type: 3}
      propertyPath: m_TagString
      value: CombatArea
      objectReference: {fileID: 0}
    - target: {fileID: 400000, guid: 93e86b57e56570d46814839867bf9a52, type: 3}
      propertyPath: m_LocalPosition.x
      value: 308.23434
      objectReference: {fileID: 0}
    - target: {fileID: 400000, guid: 93e86b57e56570d46814839867bf9a52, type: 3}
      propertyPath: m_LocalPosition.y
      value: -1.49
      objectReference: {fileID: 0}
    - target: {fileID: 400000, guid: 93e86b57e56570d46814839867bf9a52, type: 3}
      propertyPath: m_LocalPosition.z
      value: 254.24
      objectReference: {fileID: 0}
    - target: {fileID: 400000, guid: 93e86b57e56570d46814839867bf9a52, type: 3}
      propertyPath: m_LocalRotation.x
      value: 0.00000006144128
      objectReference: {fileID: 0}
    - target: {fileID: 400000, guid: 93e86b57e56570d46814839867bf9a52, type: 3}
      propertyPath: m_LocalRotation.y
      value: -0.6565899
      objectReference: {fileID: 0}
    - target: {fileID: 400000, guid: 93e86b57e56570d46814839867bf9a52, type: 3}
      propertyPath: m_LocalRotation.z
      value: -0.00000005348604
      objectReference: {fileID: 0}
    - target: {fileID: 400000, guid: 93e86b57e56570d46814839867bf9a52, type: 3}
      propertyPath: m_LocalRotation.w
      value: 0.7542478
      objectReference: {fileID: 0}
    - target: {fileID: 400000, guid: 93e86b57e56570d46814839867bf9a52, type: 3}
      propertyPath: m_RootOrder
      value: 0
      objectReference: {fileID: 0}
    - target: {fileID: 400000, guid: 93e86b57e56570d46814839867bf9a52, type: 3}
      propertyPath: m_LocalEulerAnglesHint.x
      value: 0
      objectReference: {fileID: 0}
    - target: {fileID: 400000, guid: 93e86b57e56570d46814839867bf9a52, type: 3}
      propertyPath: m_LocalEulerAnglesHint.y
      value: -82.081
      objectReference: {fileID: 0}
    - target: {fileID: 400000, guid: 93e86b57e56570d46814839867bf9a52, type: 3}
      propertyPath: m_LocalEulerAnglesHint.z
      value: 0
      objectReference: {fileID: 0}
    - target: {fileID: 400000, guid: 93e86b57e56570d46814839867bf9a52, type: 3}
      propertyPath: m_LocalScale.x
      value: 3.4280953
      objectReference: {fileID: 0}
    - target: {fileID: 400000, guid: 93e86b57e56570d46814839867bf9a52, type: 3}
      propertyPath: m_LocalScale.y
      value: 3.7395
      objectReference: {fileID: 0}
    - target: {fileID: 2300000, guid: 93e86b57e56570d46814839867bf9a52, type: 3}
      propertyPath: m_Materials.Array.data[0]
      value: 
      objectReference: {fileID: 2100000, guid: 642a7f1a25aa2524eb934760afa4b209, type: 2}
    - target: {fileID: 2300000, guid: 93e86b57e56570d46814839867bf9a52, type: 3}
      propertyPath: m_Enabled
      value: 1
      objectReference: {fileID: 0}
    - target: {fileID: 6500000, guid: 93e86b57e56570d46814839867bf9a52, type: 3}
      propertyPath: m_IsTrigger
      value: 1
      objectReference: {fileID: 0}
    - target: {fileID: 1489382970525782357, guid: 93e86b57e56570d46814839867bf9a52,
        type: 3}
      propertyPath: newTrack
      value: 
      objectReference: {fileID: 8300000, guid: 4b4c8b9bc7401f6488a36beae870c3f2, type: 3}
    m_RemovedComponents: []
  m_SourcePrefab: {fileID: 100100000, guid: 93e86b57e56570d46814839867bf9a52, type: 3}
--- !u!1 &7186780250506414072 stripped
GameObject:
  m_CorrespondingSourceObject: {fileID: 100000, guid: 93e86b57e56570d46814839867bf9a52,
    type: 3}
  m_PrefabInstance: {fileID: 7186780250506510680}
  m_PrefabAsset: {fileID: 0}
